{
    "projects": [
        {
            "id": "1",
            "code": "SROI-24-082",
            "name": "Inisiatif Pertanian Berkelanjutan",
            "type": "SROI",
            "typeLabel": "Social Return on Investment (SROI)",
            "location": "Penilaian Q3",
            "status": "active",
            "currentResponses": 842,
            "targetResponses": 1200
        },
        {
            "id": "2",
            "code": "IKM-24-015",
            "name": "Audit Kesehatan Masyarakat",
            "type": "IKM",
            "typeLabel": "Indeks Kepuasan Masyarakat (IKM)",
            "location": "Tingkat Regional",
            "status": "active",
            "currentResponses": 142,
            "targetResponses": 500
        },
        {
            "id": "3",
            "code": "SLOI-24-004",
            "name": "Perpanjangan Izin Area Tambang",
            "type": "SLOI",
            "typeLabel": "Social License to Operate (SLOI)",
            "location": "Site A",
            "status": "draft",
            "currentResponses": 0,
            "targetResponses": 250
        },
        {
            "id": "4",
            "code": "IKM-23-112",
            "name": "Kepuasan Layanan Tahunan 2023",
            "type": "IKM",
            "typeLabel": "Indeks Kepuasan Masyarakat (IKM)",
            "location": "Kantor Pusat",
            "status": "closed",
            "currentResponses": 2104,
            "targetResponses": 2000
        },
        {
            "id": "5",
            "code": "SROI-24-099",
            "name": "Program Pemberdayaan Ekonomi Desa",
            "type": "SROI",
            "typeLabel": "Social Return on Investment (SROI)",
            "location": "Kabupaten Sleman",
            "status": "active",
            "currentResponses": 567,
            "targetResponses": 800
        },
        {
            "id": "6",
            "code": "SLOI-24-012",
            "name": "Survei Penerimaan Sosial Pabrik Baru",
            "type": "SLOI",
            "typeLabel": "Social License to Operate (SLOI)",
            "location": "Kawasan Industri Bekasi",
            "status": "active",
            "currentResponses": 320,
            "targetResponses": 500
        }
    ],
    "filterTabs": [
        {
            "key": "all",
            "label": "Semua"
        },
        {
            "key": "active",
            "label": "Aktif"
        },
        {
            "key": "draft",
            "label": "Draft"
        },
        {
            "key": "closed",
            "label": "Selesai"
        }
    ],
    "summaryStats": {
        "totalROI": "Rp 67M",
        "totalROITrend": "+12% dari kuartal sebelumnya",
        "totalRespondents": "12.482",
        "totalRespondentsSubtitle": "Dari 4 kampanye aktif",
        "draftProposals": "7",
        "draftProposalsSubtitle": "Menunggu persetujuan supervisor"
    },
    "pagination": {
        "currentPage": 1,
        "totalPages": 3,
        "totalItems": 24,
        "itemsPerPage": 4
    }
}